…
``` r
polygon_data <- tigris::tracts(state = 'oh', county = 'hamilton') %>% 
  dplyr::slice(1:3) %>% 
  dplyr::select(GEOID)
```

``` r
get_nlcd_data_polygons(polygon_data)
```

    #> Simple feature collection with 12 features and 17 fields
    #> Geometry type: MULTIPOLYGON
    #> Dimension:     XY
    #> Bounding box:  xmin: -84.57678 ymin: 39.21906 xmax: -84.52764 ymax: 39.26197
    #> Geodetic CRS:  NAD83
    #> First 10 features:
    #>         GEOID year impervious green primary_urban primary_rural secondary_urban
    #> 1 39061021602 2001         13    96             0             0               3
    #> 2 39061021602 2006         13    96             0             0               3
    #> 3 39061021602 2011         13    96             0             0               3
    #> 4 39061021602 2016         13    96             0             0               3
    #> 5 39061021603 2001         15    95             0             0               6
    #>   secondary_rural tertiary_urban tertiary_rural thinned_urban thinned_rural
    #> 1               0             19              0             0             0
    #> 2               0             19              0             0             0
    #> 3               0             19              0             0             0
    #> 4               0             19              0             0             0
    #> 5               0             16              0             0             0
    #>   nonroad_urban nonroad_rural energyprod_urban energyprod_rural nonimpervious
    #> 1            34             0                0                0            44
    #> 2            34             0                0                0            44
    #> 3            34             0                0                0            44
    #> 4            34             0                0                0            44
    #> 5            50             0                0                0            28
    #>                         geometry
    #> 1 MULTIPOLYGON (((-84.54756 3...
    #> 2 MULTIPOLYGON (((-84.54756 3...
    #> 3 MULTIPOLYGON (((-84.54756 3...
    #> 4 MULTIPOLYGON (((-84.54756 3...
    #> 5 MULTIPOLYGON (((-84.57484 3...
    #>  [ reached 'max' / getOption("max.print") -- omitted 5 rows ]
…
